Venture Capital Funding
…
The overall investment frequency is mainly distributed around 0.005 ± 0.0025 and there are a lot of outliers mainly in the interval 0.015-0.05.

So I wanted to take a more visual look at these discrete values.

VCinv0015 <- VCdata %>%
  filter(VCinv > 0.015)

print(VCinv0015)

# A tibble: 98 × 23
      VC   age country industry  VCinv logsales logemp logassets logemp_1
   <dbl> <dbl> <chr>   <chr>     <dbl>    <dbl>  <dbl>     <dbl>    <dbl>
 1     1     0 GERMANY Biotech  0.0274     0      0         0       1.61 
 2     0     2 ITALY   TLC      0.0248     6.12   2.94      6.29    2.71 
 3     0     4 SPAIN   Biotech  0.0183     5.47   1.39      5.41    1.39 
 4     0     0 GERMANY Biotech  0.0274     0      0         0       1.79 
 5     0     5 ITALY   TLC      0.0248     7.74   3.04      6.73    3.04 
 6     1     0 ITALY   TLC      0.0248     0      0         0       2.08 
 7     0     0 GERMANY Biotech  0.0274     0      0         0       1.10 
 8     0     0 GERMANY Biotech  0.0274     0      0         0      NA    
 9     0     0 GERMANY Biotech  0.0274     0      0         0      NA    
10     1     0 GERMANY Biotech  0.0274     0      0         0       0.693
# ℹ 88 more rows
# ℹ 14 more variables: logemp_2 <dbl>, logemp_3 <dbl>, logemp_4 <dbl>,
#   logemp_5 <dbl>, logsales_1 <dbl>, logsales_2 <dbl>, logsales_3 <dbl>,
#   logsales_4 <dbl>, logsales_5 <dbl>, logassets_1 <dbl>, logassets_2 <dbl>,
#   logassets_3 <dbl>, logassets_4 <dbl>, logassets_5 <dbl>
…
